{
  "user":{
    "name":"Player141",
    "sessionid":"local"
  },
  "stats-change":[
    {"1004":1},
    {"1100":223},
    {"5242880":1},
    {"1000":1},
    {"1002":1},
    {"2010":1},
    {"2000":199}
  ],
  "checksum":"bca91976ca889ecfb7f8ab2f5c1fdf13"
}