{
  "user":{
    "name":"Player100",
    "sessionid":"local"
  },
  "stats-change":[
    {"2010":2},
    {"1100":225},
    {"1000":1},
    {"2004":28},
    {"1002":1},
    {"2000":1027}
  ],
  "checksum":"ff5e6d230066a07f15b5f9eecce17983"
}