{
  "user":{
    "name":"Player530",
    "sessionid":"local"
  },
  "stats-change":[
    {"1100":331},
    {"16908671":1},
    {"1002":1},
    {"2000":599},
    {"5242880":2},
    {"1000":1}
  ],
  "checksum":"6bf45d1a4fc75b5028d858ad5a08874f"
}