2012-06-03 15:05:01 [INFO] Starting minecraft server version 1.2.5
2012-06-03 15:05:01 [INFO] Loading properties
2012-06-03 15:05:01 [INFO] Starting Minecraft server on *:25565
2012-06-03 15:05:01 [WARNING] **** FAILED TO BIND TO PORT!
2012-06-03 15:05:01 [WARNING] The exception was: java.net.BindException: Address already in use: JVM_Bind
2012-06-03 15:05:01 [WARNING] Perhaps a server is already running on that port?
2012-06-03 15:05:08 [INFO] Stopping server
2012-06-06 21:45:02 [INFO] Starting minecraft server version 1.2.5
2012-06-06 21:45:02 [INFO] Loading properties
2012-06-06 21:45:02 [INFO] Starting Minecraft server on *:25565
2012-06-06 21:45:02 [WARNING] **** FAILED TO BIND TO PORT!
2012-06-06 21:45:02 [WARNING] The exception was: java.net.BindException: Address already in use: JVM_Bind
2012-06-06 21:45:02 [WARNING] Perhaps a server is already running on that port?
2012-06-06 21:45:06 [INFO] Stopping server
